…
#>  5 P_08207     1860. 36.4   293.   (2.209903 42.33968) <tibble [30 × 13]>
#>  6 P_08299      183.  4.12   92.9  (2.817143 42.24325) <tibble [30 × 13]>
#>  7 P_09341      819  23.4   128.   (1.126766 42.42612) <tibble [30 × 13]>
#>  8 P_10272      860  34.8   347.   (1.398528 42.26791) <tibble [30 × 13]>
#>  9 P_10861      706  22.4    22.6 (0.9314126 42.04226) <tibble [30 × 13]>
#> 10 P_11651      585  22.0   199.   (0.7578958 41.8612) <tibble [30 × 13]>
#> 11 P_12150      674. 30.3   154.   (1.481719 41.81838) <tibble [30 × 13]>
#> 12 P_12227      752.  6.04   27.7    (1.283161 41.591) <tibble [30 × 13]>
#> 13 P_12417      702  11.6    63.1 (0.8727224 41.35875) <tibble [30 × 13]>
#> 14 P_13007      972.  4.21  338.    (1.120383 42.6336) <tibble [30 × 13]>
#> 15 P_14029      556. 14.1    41.4  (1.480716 41.31541) <tibble [30 × 13]>
# results for the first location
res[["interpolated_data"]][1]
#> [[1]]
#> # A tibble: 30 × 13
#>    dates                 DOY MeanTemperature MinTemperature MaxTemperature
#>    <dttm>              <dbl>           <dbl>          <dbl>          <dbl>
#>  1 2022-04-01 00:00:00    91            3.24          -2.53           6.99
#>  2 2022-04-02 00:00:00    92            2.99          -4.20           7.67
#>  3 2022-04-03 00:00:00    93            2.39          -5.61           7.59
#>  4 2022-04-04 00:00:00    94            4.02          -3.93           9.20
#>  5 2022-04-05 00:00:00    95            7.38          -3.29          14.3 
#>  6 2022-04-06 00:00:00    96            8.78           1.31          13.6 
#>  7 2022-04-07 00:00:00    97           12.1            2.44          18.4 
#>  8 2022-04-08 00:00:00    98           12.9            3.32          19.1 
#>  9 2022-04-09 00:00:00    99           10.0            3.83          14.1 
#> 10 2022-04-10 00:00:00   100           11.4            4.85          15.6 
#> # ℹ 20 more rows
#> # ℹ 8 more variables: Precipitation <dbl>, MeanRelativeHumidity <dbl>,
#> #   MinRelativeHumidity <dbl>, MaxRelativeHumidity <dbl>, Radiation <dbl>,
#> #   WindSpeed <dbl>, WindDirection <dbl>, PET <dbl>
#> 
# unnest results
tidyr::unnest(res, cols = "interpolated_data")
#> Simple feature collection with 450 features and 17 fields
#> Geometry type: POINT
#> Dimension:     XY
#> Bounding box:  xmin: 0.7578958 ymin: 41.31541 xmax: 2.98657 ymax: 42.6336
#> Geodetic CRS:  WGS 84
#> # A tibble: 450 × 18
#>    plot_id elevation slope aspect            geometry dates              
#>    <chr>       <dbl> <dbl>  <dbl>         <POINT [°]> <dttm>             
#>  1 P_05284      889.  25.2   313. (2.320167 42.24139) 2022-04-01 00:00:00
#>  2 P_05284      889.  25.2   313. (2.320167 42.24139) 2022-04-02 00:00:00
#>  3 P_05284      889.  25.2   313. (2.320167 42.24139) 2022-04-03 00:00:00
#>  4 P_05284      889.  25.2   313. (2.320167 42.24139) 2022-04-04 00:00:00
#>  5 P_05284      889.  25.2   313. (2.320167 42.24139) 2022-04-05 00:00:00
#>  6 P_05284      889.  25.2   313. (2.320167 42.24139) 2022-04-06 00:00:00
#>  7 P_05284      889.  25.2   313. (2.320167 42.24139) 2022-04-07 00:00:00
#>  8 P_05284      889.  25.2   313. (2.320167 42.24139) 2022-04-08 00:00:00
#>  9 P_05284      889.  25.2   313. (2.320167 42.24139) 2022-04-09 00:00:00
#> 10 P_05284      889.  25.2   313. (2.320167 42.24139) 2022-04-10 00:00:00
#> # ℹ 440 more rows
#> # ℹ 12 more variables: DOY <dbl>, MeanTemperature <dbl>, MinTemperature <dbl>,
#> #   MaxTemperature <dbl>, Precipitation <dbl>, MeanRelativeHumidity <dbl>,
#> #   MinRelativeHumidity <dbl>, MaxRelativeHumidity <dbl>, Radiation <dbl>,
#> #   WindSpeed <dbl>, WindDirection <dbl>, PET <dbl>
…
