…
# As the cross validation for all stations can be time consuming, we are
# gonna use only for the first 5 stations of the 198
cv <- interpolation_cross_validation(meteoland_interpolator_example, stations = 1:5)
#> ℹ Starting Cross Validation process...
#> • Interpolating stations...
#> • Calculating R squared...
#> • calculating errors, MAE and bias for interpolated variables...
#> ✔ Cross validation done.

# Inspect the results
cv$errors
#> # A tibble: 150 × 21
#>    dates               station stationID MinTemperature_error
#>    <dttm>                <int> <chr>                    <dbl>
#>  1 2022-04-01 00:00:00       1 C6                      0.120 
#>  2 2022-04-02 00:00:00       1 C6                     -0.296 
#>  3 2022-04-03 00:00:00       1 C6                      0.178 
#>  4 2022-04-04 00:00:00       1 C6                     -0.164 
#>  5 2022-04-05 00:00:00       1 C6                     -0.0108
#>  6 2022-04-06 00:00:00       1 C6                     -0.287 
#>  7 2022-04-07 00:00:00       1 C6                     -0.773 
#>  8 2022-04-08 00:00:00       1 C6                      1.22  
#>  9 2022-04-09 00:00:00       1 C6                     -0.599 
#> 10 2022-04-10 00:00:00       1 C6                      1.08  
#> # ℹ 140 more rows
#> # ℹ 17 more variables: MaxTemperature_error <dbl>,
#> #   RangeTemperature_error <dbl>, RelativeHumidity_error <dbl>,
#> #   Radiation_error <dbl>, Precipitation_error <dbl>,
#> #   MinTemperature_predicted <dbl>, MaxTemperature_predicted <dbl>,
#> #   RangeTemperature_predicted <dbl>, RelativeHumidity_predicted <dbl>,
#> #   Radiation_predicted <dbl>, Precipitation_predicted <dbl>, …
…
#>     <int> <chr>                           <dbl>                       <dbl>
#> 1       1 C6                            -0.0601                     -0.489 
#> 2       2 C7                            -1.37                       -0.644 
#> 3       3 C8                            -0.224                       0.0301
#> 4       4 C9                            -0.257                       0.519 
#> 5       5 CC                             0.178                      -0.808 
#> # ℹ 16 more variables: RangeTemperature_station_bias <dbl>,
#> #   RelativeHumidity_station_bias <dbl>, Radiation_station_bias <dbl>,
#> #   MinTemperature_station_mae <dbl>, MaxTemperature_station_mae <dbl>,
#> #   RangeTemperature_station_mae <dbl>, RelativeHumidity_station_mae <dbl>,
#> #   Radiation_station_mae <dbl>, TotalPrecipitation_station_observed <dbl>,
#> #   TotalPrecipitation_station_predicted <dbl>,
#> #   TotalPrecipitation_station_bias <dbl>, …
cv$dates_stats
#> # A tibble: 30 × 19
#>    dates               MinTemperature_date_bias MaxTemperature_date_bias
#>    <dttm>                                 <dbl>                    <dbl>
#>  1 2022-04-01 00:00:00                  -0.0883                  -0.174 
#>  2 2022-04-02 00:00:00                  -0.434                   -0.226 
#>  3 2022-04-03 00:00:00                  -0.392                   -0.477 
#>  4 2022-04-04 00:00:00                  -0.550                   -0.197 
#>  5 2022-04-05 00:00:00                  -0.172                   -0.365 
#>  6 2022-04-06 00:00:00                  -0.345                    0.0511
#>  7 2022-04-07 00:00:00                  -1.09                    -0.188 
#>  8 2022-04-08 00:00:00                  -0.730                   -0.236 
#>  9 2022-04-09 00:00:00                  -0.576                   -0.422 
#> 10 2022-04-10 00:00:00                  -0.568                    0.0402
#> # ℹ 20 more rows
#> # ℹ 16 more variables: RangeTemperature_date_bias <dbl>,
#> #   RelativeHumidity_date_bias <dbl>, Radiation_date_bias <dbl>,
#> #   MinTemperature_date_mae <dbl>, MaxTemperature_date_mae <dbl>,
#> #   RangeTemperature_date_mae <dbl>, RelativeHumidity_date_mae <dbl>,
#> #   Radiation_date_mae <dbl>, TotalPrecipitation_date_observed <dbl>,
#> #   TotalPrecipitation_date_predicted <dbl>, …
…
