From worldmet to meteoland meteo objects — worldmet2meteoland • meteoland
…
#> scale
#> Warning: Provided meteo data seems to be in subdaily time steps, aggregating to daily
#> scale
#> ℹ Completing missing variables if possible:
#> • RelativeHumidity
#> • MinRelativeHumidity
#> • MaxRelativeHumidity
#> • Radiation
#> ✔ Done
#> Simple feature collection with 730 features and 15 fields
#> Geometry type: POINT
#> Dimension:     XY
#> Bounding box:  xmin: -0.3333333 ymin: 41.72778 xmax: 0.53583 ymax: 42.08333
#> Geodetic CRS:  WGS 84
#> # A tibble: 730 × 16
#>    dates               stationID    elevation MeanTemperature MinTemperature
#>  * <dttm>              <chr>            <dbl>           <dbl>          <dbl>
#>  1 2022-01-01 00:00:00 080940-99999       554            7.78          2.57 
#>  2 2022-01-01 00:00:00 084515-99999       350            3.17          1    
#>  3 2022-01-02 00:00:00 080940-99999       554            7.87          3.4  
#>  4 2022-01-02 00:00:00 084515-99999       350            2.39         -1    
#>  5 2022-01-03 00:00:00 080940-99999       554            7.13          2.77 
#>  6 2022-01-03 00:00:00 084515-99999       350            5.15          0    
#>  7 2022-01-04 00:00:00 080940-99999       554            8.43          3.87 
#>  8 2022-01-04 00:00:00 084515-99999       350            6.58          1    
#>  9 2022-01-05 00:00:00 080940-99999       554            4.57         -0.433
#> 10 2022-01-05 00:00:00 084515-99999       350            6.17          0.5  
#> # ℹ 720 more rows
#> # ℹ 11 more variables: MaxTemperature <dbl>, MeanRelativeHumidity <dbl>,
#> #   MinRelativeHumidity <dbl>, MaxRelativeHumidity <dbl>, Precipitation <dbl>,
#> #   WindSpeed <dbl>, WindDirection <dbl>, Radiation <dbl>,
#> #   geometry <POINT [°]>, aspect <dbl>, slope <dbl>
…
