…
The station metadata looks like this:

``` r
sg_st
```

    ## # A tibble: 57 × 12
    ##    usaf  wban  station ctry  st    call  latitude longitude `elev(m)` begin     
    ##    <chr> <chr> <chr>   <chr> <chr> <chr>    <dbl>     <dbl>     <dbl> <date>    
    ##  1 6160… 99999 SAINT … SG    NA    GOSS      16.1     -16.5       2.7 1949-04-01
    ##  2 6161… 99999 PODOR   SG    NA    GOSP      16.6     -15.0       7   1973-01-01
    ##  3 6162… 99999 LINGUE… SG    NA    GOOG      15.4     -15.1      21   1950-03-04
    ##  4 6163… 99999 MATAM/… SG    NA    GOSM      15.6     -13.2      17   1949-04-23
    ##  5 6164… 99999 LEOPOL… SG    NA    GOOY      14.7     -17.5      25.9 1943-04-01
    ##  6 6166… 99999 DIOURB… SG    NA    GOOD      14.6     -16.2       9   1950-02-06
    ##  7 6167… 99999 KAOLACK SG    NA    GOOK      14.1     -16.1       7.9 1950-02-05
    ##  8 6168… 99999 TAMBAC… SG    NA    GOTT      13.7     -13.7      49.1 1949-05-01
    ##  9 6169… 99999 ZIGUIN… SG    NA    GOGG      12.6     -16.3      22.9 1949-04-02
    ## 10 6169… 99999 CAP SK… SG    NA    GOGS      12.4     -16.7      15.8 1977-11-01
    ## # ℹ 47 more rows
    ## # ℹ 2 more variables: end <date>, code <chr>
…
