Daily weather interpolation over Senegal • meteoland
…
Accessing weather station data

We start by loading package worldmet, which provides access to over 30.000 weather stations across the globe:

In order to download weather data, we must first obtain the codes of the weather stations available for our study area. This can be done using function getMeta() from worldmet, which we use to know available weather stations for Senegal and neighbouring countries:

#Country codes for Senegal / Gambia/ Guinea/ Mali/ Mauritania /Guinea bissau
countries <- c("SG", "GA", "GV", "ML", "MR", "PU")
sg_st = getMeta(country=countries, plot = FALSE) 

Here are the stations downloaded:

sg_st

## # A tibble: 47 × 12
##    usaf  wban  station ctry  st    call  latitude longitude `elev(m)` begin     
##    <chr> <chr> <chr>   <chr> <chr> <chr>    <dbl>     <dbl>     <dbl> <date>    
##  1 6121… 99999 KIDAL   ML    NA    GAKL      18.4     1.35      459   1957-03-05
##  2 6122… 99999 TOMBOU… ML    NA    GATB      16.7    -3.01      263   1949-04-11
##  3 6122… 99999 GAO     ML    NA    GAGO      16.2    -0.005     265.  1949-04-01
##  4 6123… 99999 NIORO … ML    NA    GANR      15.2    -9.35      237   1949-04-06
##  5 6123… 99999 NARA/K… ML    NA    GANK      15.2    -7.28      265   1978-02-01
##  6 6123… 99999 YELIMA… ML    NA    NA        15.1   -10.6       100   1990-10-01
##  7 6125… 99999 KAYES/… ML    NA    GAKD      14.5   -11.4        51.5 1949-04-03
##  8 6126… 99999 AMBODE… ML    NA    GAMB      14.5    -4.08      276.  1949-04-03
##  9 6127… 99999 KITA    ML    NA    GAKT      13.1    -9.47      334   1957-01-05
## 10 6127… 99999 SEGOU   ML    NA    GASG      13.4    -6.15      289   1949-04-06
## # … with 37 more rows, and 2 more variables: end <date>, code <chr>
…
