Reshaping meteorological data for meteoland • meteoland
…
For the interpolation of meteorological variables on our target
locations, we need meteorological data for a reference set of locations.
In meteoland this is a sf object with the
spatial coordinates of our reference locations (usually meteorological
stations) and daily values of the meteorological variables needed to
perform the interpolation, i.e.:

meteoland_meteo_example
#> Simple feature collection with 5652 features and 18 fields
#> Geometry type: POINT
#> Dimension:     XY
#> Bounding box:  xmin: 0.30565 ymin: 40.55786 xmax: 3.18165 ymax: 42.77011
#> Geodetic CRS:  WGS 84
#> # A tibble: 5,652 × 19
#>    dates               service stationID station_name station_province elevation
#>  * <dttm>              <chr>   <chr>     <chr>        <chr>                <dbl>
#>  1 2022-04-01 00:00:00 meteoc… C6        Castellnou … Lleida                264 
#>  2 2022-04-01 00:00:00 meteoc… C7        Tàrrega      Lleida                427 
#>  3 2022-04-01 00:00:00 meteoc… C8        Cervera      Lleida                554 
#>  4 2022-04-01 00:00:00 meteoc… C9        Mas de Barb… Tarragona             240 
#>  5 2022-04-01 00:00:00 meteoc… CC        Orís         Barcelona             626 
#>  6 2022-04-01 00:00:00 meteoc… CD        la Seu d'Ur… Lleida                849 
#>  7 2022-04-01 00:00:00 meteoc… CE        els Hostale… Barcelona             316 
#>  8 2022-04-01 00:00:00 meteoc… CG        Molló - Fab… Girona               1405 
#>  9 2022-04-01 00:00:00 meteoc… CI        Sant Pau de… Girona                852 
#> 10 2022-04-01 00:00:00 meteoc… CJ        Organyà      Lleida                566.
#> # ℹ 5,642 more rows
#> # ℹ 13 more variables: MeanTemperature <dbl>, MinTemperature <dbl>,
#> #   MaxTemperature <dbl>, MeanRelativeHumidity <dbl>,
#> #   MinRelativeHumidity <dbl>, MaxRelativeHumidity <dbl>, Precipitation <dbl>,
#> #   WindDirection <dbl>, WindSpeed <dbl>, Radiation <dbl>, geom <POINT [°]>,
#> #   aspect <dbl>, slope <dbl>
…
points_meteo_reference
#> Simple feature collection with 3630 features and 16 fields
#> Geometry type: POINT
#> Dimension:     XY
#> Bounding box:  xmin: 1.6762 ymin: 41.65133 xmax: 1.781988 ymax: 41.75712
#> Geodetic CRS:  WGS 84
#> # A tibble: 3,630 × 17
#>             geometry dates      MeanTemperature stationID         MinTemperature
#>          <POINT [°]> <date>               <dbl> <chr>                      <dbl>
#>  1 (1.6762 41.75712) 2022-04-01            6.24 c(1.676199866843…          0.541
#>  2 (1.6762 41.75712) 2022-04-02            6.64 c(1.676199866843…         -1.50 
#>  3 (1.6762 41.75712) 2022-04-03            4.82 c(1.676199866843…         -3.13 
#>  4 (1.6762 41.75712) 2022-04-04            6.53 c(1.676199866843…         -1.59 
#>  5 (1.6762 41.75712) 2022-04-05            9.05 c(1.676199866843…         -1.51 
#>  6 (1.6762 41.75712) 2022-04-06           11.8  c(1.676199866843…          3.70 
#>  7 (1.6762 41.75712) 2022-04-07           14.1  c(1.676199866843…          3.67 
#>  8 (1.6762 41.75712) 2022-04-08           15.1  c(1.676199866843…          7.71 
#>  9 (1.6762 41.75712) 2022-04-09           13.6  c(1.676199866843…          6.79 
#> 10 (1.6762 41.75712) 2022-04-10           11.6  c(1.676199866843…          4.94 
#> # ℹ 3,620 more rows
#> # ℹ 12 more variables: MaxTemperature <dbl>, Precipitation <dbl>,
#> #   MeanRelativeHumidity <dbl>, MinRelativeHumidity <dbl>,
#> #   MaxRelativeHumidity <dbl>, Radiation <dbl>, WindSpeed <dbl>,
#> #   WindDirection <dbl>, PET <dbl>, elevation <dbl>, slope <dbl>, aspect <dbl>
…
