Tidy meteoland • meteoland
…
Meteorological information

For interpolating the meteorological variables in our locations (see
above), we need a reference meteorological data. This is a
sf object with the reference locations, and daily values of
the weather variables needed to perform the interpolation, for
example:

meteoland_meteo_example
#> Simple feature collection with 5652 features and 18 fields
#> Geometry type: POINT
#> Dimension:     XY
#> Bounding box:  xmin: 0.30565 ymin: 40.55786 xmax: 3.18165 ymax: 42.77011
#> Geodetic CRS:  WGS 84
#> # A tibble: 5,652 × 19
#>    dates               service stationID station_name station_province elevation
#>  * <dttm>              <chr>   <chr>     <chr>        <chr>                <dbl>
#>  1 2022-04-01 00:00:00 meteoc… C6        Castellnou … Lleida                264 
#>  2 2022-04-01 00:00:00 meteoc… C7        Tàrrega      Lleida                427 
#>  3 2022-04-01 00:00:00 meteoc… C8        Cervera      Lleida                554 
#>  4 2022-04-01 00:00:00 meteoc… C9        Mas de Barb… Tarragona             240 
#>  5 2022-04-01 00:00:00 meteoc… CC        Orís         Barcelona             626 
#>  6 2022-04-01 00:00:00 meteoc… CD        la Seu d'Ur… Lleida                849 
#>  7 2022-04-01 00:00:00 meteoc… CE        els Hostale… Barcelona             316 
#>  8 2022-04-01 00:00:00 meteoc… CG        Molló - Fab… Girona               1405 
#>  9 2022-04-01 00:00:00 meteoc… CI        Sant Pau de… Girona                852 
#> 10 2022-04-01 00:00:00 meteoc… CJ        Organyà      Lleida                566.
#> # ℹ 5,642 more rows
#> # ℹ 13 more variables: MeanTemperature <dbl>, MinTemperature <dbl>,
#> #   MaxTemperature <dbl>, MeanRelativeHumidity <dbl>,
#> #   MinRelativeHumidity <dbl>, MaxRelativeHumidity <dbl>, Precipitation <dbl>,
#> #   WindDirection <dbl>, WindSpeed <dbl>, Radiation <dbl>, geom <POINT [°]>,
#> #   aspect <dbl>, slope <dbl>
…
interpolate_data(...) performs the interpolation using
the topography provided and the interpolator object. If the
topographical information is in an sf object, as in the
example above, interpolate_data returns the same
sf object with an additional column called
interpolated_data:

# interpolated meteo for the first location
points_interpolated[["interpolated_data"]][1]
#> [[1]]
#> # A tibble: 30 × 13
#>    dates                 DOY MeanTemperature MinTemperature MaxTemperature
#>    <dttm>              <dbl>           <dbl>          <dbl>          <dbl>
#>  1 2022-04-01 00:00:00    91            2.91          -2.57           6.47
#>  2 2022-04-02 00:00:00    92            2.61          -3.70           6.71
#>  3 2022-04-03 00:00:00    93            1.92          -4.79           6.28
#>  4 2022-04-04 00:00:00    94            3.99          -3.57           8.91
#>  5 2022-04-05 00:00:00    95            6.79          -2.01          12.5 
#>  6 2022-04-06 00:00:00    96            8.83           1.96          13.3 
#>  7 2022-04-07 00:00:00    97           12.2            2.90          18.2 
#>  8 2022-04-08 00:00:00    98           13.0            5.48          17.8 
#>  9 2022-04-09 00:00:00    99           10.1            4.34          13.9 
#> 10 2022-04-10 00:00:00   100            9.88           3.65          13.9 
#> # ℹ 20 more rows
#> # ℹ 8 more variables: Precipitation <dbl>, MeanRelativeHumidity <dbl>,
#> #   MinRelativeHumidity <dbl>, MaxRelativeHumidity <dbl>, Radiation <dbl>,
#> #   WindSpeed <dbl>, WindDirection <dbl>, PET <dbl>

We can “unnest” the results to get the data in a long format
(each combination of location and date in a different row):

tidyr::unnest(points_interpolated, cols = "interpolated_data")
#> Simple feature collection with 450 features and 17 fields
#> Geometry type: POINT
#> Dimension:     XY
#> Bounding box:  xmin: 0.7578958 ymin: 41.31541 xmax: 2.98657 ymax: 42.6336
#> Geodetic CRS:  WGS 84
#> # A tibble: 450 × 18
#>    plot_id elevation slope aspect            geometry dates              
#>    <chr>       <dbl> <dbl>  <dbl>         <POINT [°]> <dttm>             
#>  1 P_05284      889.  25.2   313. (2.320167 42.24139) 2022-04-01 00:00:00
#>  2 P_05284      889.  25.2   313. (2.320167 42.24139) 2022-04-02 00:00:00
#>  3 P_05284      889.  25.2   313. (2.320167 42.24139) 2022-04-03 00:00:00
#>  4 P_05284      889.  25.2   313. (2.320167 42.24139) 2022-04-04 00:00:00
#>  5 P_05284      889.  25.2   313. (2.320167 42.24139) 2022-04-05 00:00:00
#>  6 P_05284      889.  25.2   313. (2.320167 42.24139) 2022-04-06 00:00:00
#>  7 P_05284      889.  25.2   313. (2.320167 42.24139) 2022-04-07 00:00:00
#>  8 P_05284      889.  25.2   313. (2.320167 42.24139) 2022-04-08 00:00:00
#>  9 P_05284      889.  25.2   313. (2.320167 42.24139) 2022-04-09 00:00:00
#> 10 P_05284      889.  25.2   313. (2.320167 42.24139) 2022-04-10 00:00:00
#> # ℹ 440 more rows
#> # ℹ 12 more variables: DOY <dbl>, MeanTemperature <dbl>, MinTemperature <dbl>,
#> #   MaxTemperature <dbl>, Precipitation <dbl>, MeanRelativeHumidity <dbl>,
#> #   MinRelativeHumidity <dbl>, MaxRelativeHumidity <dbl>, Radiation <dbl>,
#> #   WindSpeed <dbl>, WindDirection <dbl>, PET <dbl>
…
This way we can create and calibrate the interpolator once, and using
it in future sessions, avoiding the time consuming step of calibrating
every time.

Interpolation validation

The interpolation process can be cross validated.
meteoland offers the possibility with the
interpolation_cross_validation() function. This function
takes an interpolator object and calculates different error
measures.

cross_validation <- interpolation_cross_validation(interpolator, verbose = FALSE)
cross_validation$errors
#> # A tibble: 5,670 × 21
#>    dates               station stationID MinTemperature_error
#>    <dttm>                <int> <chr>                    <dbl>
#>  1 2022-04-01 00:00:00       1 C6                       1.05 
#>  2 2022-04-02 00:00:00       1 C6                       0.797
#>  3 2022-04-03 00:00:00       1 C6                       3.71 
#>  4 2022-04-04 00:00:00       1 C6                       1.25 
#>  5 2022-04-05 00:00:00       1 C6                       2.54 
#>  6 2022-04-06 00:00:00       1 C6                       0.750
#>  7 2022-04-07 00:00:00       1 C6                      -0.124
#>  8 2022-04-08 00:00:00       1 C6                       1.76 
#>  9 2022-04-09 00:00:00       1 C6                       1.68 
#> 10 2022-04-10 00:00:00       1 C6                       3.13 
#> # ℹ 5,660 more rows
#> # ℹ 17 more variables: MaxTemperature_error <dbl>,
#> #   RangeTemperature_error <dbl>, RelativeHumidity_error <dbl>,
#> #   Radiation_error <dbl>, Precipitation_error <dbl>,
#> #   MinTemperature_predicted <dbl>, MaxTemperature_predicted <dbl>,
#> #   RangeTemperature_predicted <dbl>, RelativeHumidity_predicted <dbl>,
#> #   Radiation_predicted <dbl>, Precipitation_predicted <dbl>, …
cross_validation$station_stats
#> # A tibble: 189 × 20
#>    station stationID MinTemperature_station_bias MaxTemperature_station_bias
#>      <int> <chr>                           <dbl>                       <dbl>
#>  1       1 C6                             1.13                        -0.990
#>  2       2 C7                            -0.682                       -1.00 
#>  3       3 C8                            -0.0987                      -0.186
#>  4       4 C9                            -1.63                         0.979
#>  5       5 CC                             0.749                       -2.04 
#>  6       6 CD                             0.730                       -3.04 
#>  7       7 CE                            -1.35                        -1.22 
#>  8       8 CG                            -0.963                       -0.134
#>  9       9 CI                             1.50                        -0.107
#> 10      10 CJ                             0.905                       -2.35 
#> # ℹ 179 more rows
#> # ℹ 16 more variables: RangeTemperature_station_bias <dbl>,
#> #   RelativeHumidity_station_bias <dbl>, Radiation_station_bias <dbl>,
#> #   MinTemperature_station_mae <dbl>, MaxTemperature_station_mae <dbl>,
#> #   RangeTemperature_station_mae <dbl>, RelativeHumidity_station_mae <dbl>,
#> #   Radiation_station_mae <dbl>, TotalPrecipitation_station_observed <dbl>,
#> #   TotalPrecipitation_station_predicted <dbl>, …
cross_validation$dates_stats
#> # A tibble: 30 × 19
#>    dates               MinTemperature_date_bias MaxTemperature_date_bias
#>    <dttm>                                 <dbl>                    <dbl>
#>  1 2022-04-01 00:00:00                -0.0650                    0.00706
#>  2 2022-04-02 00:00:00                -0.0653                   -0.0375 
#>  3 2022-04-03 00:00:00                -0.0932                   -0.199  
#>  4 2022-04-04 00:00:00                 0.00443                  -0.0577 
#>  5 2022-04-05 00:00:00                -0.0363                   -0.168  
#>  6 2022-04-06 00:00:00                -0.0254                   -0.0960 
#>  7 2022-04-07 00:00:00                -0.0556                   -0.0635 
#>  8 2022-04-08 00:00:00                -0.0423                   -0.0879 
#>  9 2022-04-09 00:00:00                -0.00475                  -0.151  
#> 10 2022-04-10 00:00:00                 0.000355                 -0.0217 
#> # ℹ 20 more rows
#> # ℹ 16 more variables: RangeTemperature_date_bias <dbl>,
#> #   RelativeHumidity_date_bias <dbl>, Radiation_date_bias <dbl>,
#> #   MinTemperature_date_mae <dbl>, MaxTemperature_date_mae <dbl>,
#> #   RangeTemperature_date_mae <dbl>, RelativeHumidity_date_mae <dbl>,
#> #   Radiation_date_mae <dbl>, TotalPrecipitation_date_observed <dbl>,
#> #   TotalPrecipitation_date_predicted <dbl>, …
…
